{
  "variables": {
    "aws_access_key": "",
    "aws_secret_key": "",
    "region": "eu-central-1",
    "ssh_username": "ec2-user",
    "base_ami": "ami-0cfbf4f6db41068ac",
    "instance_type": "t2.micro"
  },
  "builders": [
    {
      "type": "amazon-ebs",
      "access_key": "{{user `aws_access_key`}}",
      "secret_key": "{{user `aws_secret_key` }}",
      "region": "{{user `region` }}",
      "subnet_id": "{{user `subnet_id` }}",
      "source_ami": "{{user `base_ami`}}",
      "instance_type": "{{user `instance_type` }}",
      "force_deregister": "true",
      "force_delete_snapshot": "true",
      "ssh_username": "{{user `ssh_username`}}",
      "ami_name": "DevSecOps Lab - Splunk",
      "associate_public_ip_address": true,
      "tags": {
        "Name": "Packer-Shell-Splunk"
      }
    }
  ],
  "provisioners": [
    {
      "type": "shell",
      "inline": [
          "sleep 30",
          "sudo yum -y install epel-release",
          "sudo yum-config-manager --enable epel",
          "sudo yum -y install ansible"
      ]
    },
    {
      "type": "file",
      "source": "./files/",
      "destination": "/tmp"
    },
    {
      "type": "file",
      "source": "./apps/",
      "destination": "/tmp"
    },
    {
      "type": "ansible-local",
      "playbook_file": "./files/splunk-playbook.yml"
    }
  ]
}
